{
  "$schema": "http://json-schema.org/schema",
  "id": "action-name",
  "type": "object",
  "properties": {
    "project": {
      "type": "string",
      "description": "The name of the project.",
      "$default": {
        "$source": "argv",
        "index": 0
      }
    },
    "path": {
      "type": "string",
      "description": "Actions file path",
      "$default": {
        "$source": "argv",
        "index": 1
      }
    },
    "names": {
      "type": "string",
      "description": "Action names you want to add to action file (separated by coma)",
      "$default": {
        "$source": "argv",
        "index": 2
      }
    }
  },
  "required": [
    "project",
    "path",
    "names"
  ]
}
